Gov 50 Final Project
…
stats_2017 <- stats_2017 |>
  left_join(stand,by = "player_id")

stats_2017_na<-na.omit(stats_2017)

stats_2017_na <- stats_2017_na|>
mutate(
  stand_numeric= if_else(stand == "L",1,0)
)

stats_2017_na

# A tibble: 154 × 61
   total_splits season num_teams  rank games_played ground_outs
          <int> <chr>      <int> <int>        <int>       <int>
 1          144 2017           1     1          153         160
 2          144 2017           1     2          159         149
 3          144 2017           1     3          136         136
 4          144 2017           1     4          144         109
 5          144 2017           1     5          130          97
 6          144 2017           1     6          162         145
 7          144 2017           1     7          140         140
 8          144 2017           1     8          162         206
 9          144 2017           1     9          152         154
10          144 2017           1     9          152         154
# ℹ 144 more rows
# ℹ 55 more variables: air_outs <int>, runs <int>, doubles <int>,
#   triples <int>, home_runs <int>, strike_outs <int>,
#   base_on_balls <int>, intentional_walks <int>, hits <int>,
#   hit_by_pitch <int>, avg <chr>, at_bats <int>, obp <chr>,
#   slg <chr>, ops <chr>, caught_stealing <int>, stolen_bases <int>,
#   stolen_base_percentage <chr>, ground_into_double_play <int>, …
…
